{"results":[{"popularity":363.69,"vote_count":378,"video":false,"poster_path":"\/qdfARIhgpgZOBh3vfNhWS4hmSo3.jpg","id":330457,"adult":false,"backdrop_path":"\/xJWPZIYOEFIjZpBL7SVBGnzRYXp.jpg","original_language":"en","original_title":"Frozen II","genre_ids":[12,16,35,10402,10751],"title":"Frozen II","vote_average":7,"overview":"Elsa, Anna, Kristoff and Olaf head far into the forest to learn the truth about an ancient mystery of their kingdom.","release_date":"2019-11-20"},{"popularity":162.45,"vote_count":704,"video":false,"poster_path":"\/vqzNJRH4YyquRiWxCCOH0aXggHI.jpg","id":290859,"adult":false,"backdrop_path":"\/riTANvQ8GKmQbgtC1ps3OfkU43A.jpg","original_language":"en","original_title":"Terminator: Dark Fate","genre_ids":[28,878],"title":"Terminator: Dark Fate","vote_average":6.3,"overview":"Decades after Sarah Connor prevented Judgment Day, a lethal new Terminator is sent to eliminate the future leader of the resistance. In a fight to save mankind, battle-hardened Sarah Connor teams up with an unexpected ally and an enhanced super soldier to stop the deadliest Terminator yet.","release_date":"2019-10-23"},{"popularity":156.277,"vote_count":493,"video":false,"poster_path":"\/zBhv8rsLOfpFW2M5b6wW78Uoojs.jpg","id":540901,"adult":false,"backdrop_path":"\/mBBJ3N3an8FLkp0ZpGgIJwHKhBP.jpg","original_language":"en","original_title":"Hustlers","genre_ids":[35,80,18],"title":"Hustlers","vote_average":6.2,"overview":"A crew of savvy former strip club employees band together to turn the tables on their Wall Street clients.","release_date":"2019-09-12"},{"popularity":94.234,"vote_count":691,"video":false,"poster_path":"\/fapXd3v9qTcNBTm39ZC4KUVQDNf.jpg","id":423204,"adult":false,"backdrop_path":"\/k2WyDw2NTUIWnuEs5gT7wgrCQg6.jpg","original_language":"en","original_title":"Angel Has Fallen","genre_ids":[28],"title":"Angel Has Fallen","vote_average":5.8,"overview":"After the events in the previous film, Secret Service agent Mike Banning finds himself framed for an assassination attempt on the President. Pursued by his own agency and the FBI, Banning races to clear his name and uncover the real terrorist threat which has set its sights on Air Force One.","release_date":"2019-08-21"},{"popularity":73.741,"vote_count":705,"video":false,"poster_path":"\/uTALxjQU8e1lhmNjP9nnJ3t2pRU.jpg","id":453405,"adult":false,"backdrop_path":"\/c3F4P2oauA7IQmy4hM0OmRt2W7d.jpg","original_language":"en","original_title":"Gemini Man","genre_ids":[28,53],"title":"Gemini Man","vote_average":5.7,"overview":"Ageing assassin, Henry Brogen tries to get out of the business but finds himself in the ultimate battle—fighting his own clone who is 25 years younger than him, and at the peak of his abilities.","release_date":"2019-10-02"},{"popularity":97.14,"vote_count":408,"video":false,"poster_path":"\/vOl6shtL0wknjaIs6JdKCpcHvg8.jpg","id":567609,"adult":false,"backdrop_path":"\/j8uPZSPjKYzHlN2B4NhPQVWWZ5x.jpg","original_language":"en","original_title":"Ready or Not","genre_ids":[35,27,9648,53],"title":"Ready or Not","vote_average":6.8,"overview":"A bride's wedding night takes a sinister turn when her eccentric new in-laws force her to take part in a terrifying game.","release_date":"2019-08-21"},{"popularity":96.111,"vote_count":2173,"video":false,"poster_path":"\/zfE0R94v1E8cuKAerbskfD3VfUt.jpg","id":474350,"adult":false,"backdrop_path":"\/8moTOzunF7p40oR5XhlDvJckOSW.jpg","original_language":"en","original_title":"It Chapter Two","genre_ids":[18,27],"title":"It Chapter Two","vote_average":6.8,"overview":"27 years after overcoming the malevolent supernatural entity Pennywise, the former members of the Losers' Club, who have grown up and moved away from Derry, are brought back together by a devastating phone call.","release_date":"2019-09-04"},{"popularity":118.354,"vote_count":55,"video":false,"poster_path":"\/pThyQovXQrw2m0s9x82twj48Jq4.jpg","id":546554,"adult":false,"backdrop_path":"\/AbRYlvwAKHs0YuyNO6NX9ofq4l6.jpg","original_language":"en","original_title":"Knives Out","genre_ids":[35,9648,53],"title":"Knives Out","vote_average":7.8,"overview":"When renowned crime novelist Harlan Thrombey is found dead at his estate just after his 85th birthday, the inquisitive and debonair Detective Benoit Blanc is mysteriously enlisted to investigate. From Harlan's dysfunctional family to his devoted staff, Blanc sifts through a web of red herrings and self-serving lies to uncover the truth behind Harlan's untimely death.","release_date":"2019-11-27"},{"popularity":101.004,"vote_count":95,"video":false,"poster_path":"\/4E2lyUGLEr3yH4q6kJxPkQUhX7n.jpg","id":568012,"adult":false,"backdrop_path":"\/iGnCzXEx0cFlUbpyAMeHwHWhPhx.jpg","original_language":"ja","original_title":"ワンピーススタンピード","genre_ids":[28,12,16],"title":"One Piece: Stampede","vote_average":7.3,"overview":"One Piece: Stampede is a stand-alone film that celebrates the anime's 20th Anniversary and takes place outside the canon of the \"One Piece\" TV series. Monkey D. Luffy and his Straw Hat pirate crew are invited to a massive Pirate Festival that brings many of the most iconic characters from throughout the franchise to participate in competition with the Straw Hats to find Roger's treasure. It also pits the Straw Hats against a new enemy named Bullet, a former member of Roger's crew.","release_date":"2019-08-09"},{"popularity":58.121,"vote_count":135,"video":false,"poster_path":"\/r5WnfZPYAVhBA9FuZGn6THWaGHD.jpg","id":458897,"adult":false,"backdrop_path":"\/a0xTB1vBxMGt6LGG4N7k1wO9lfL.jpg","original_language":"en","original_title":"Charlie's Angels","genre_ids":[28,12,35],"title":"Charlie's Angels","vote_average":6.4,"overview":"When a systems engineer blows the whistle on a dangerous technology, Charlie's Angels from across the globe are called into action, putting their lives on the line to protect society.","release_date":"2019-11-14"},{"popularity":67.897,"vote_count":401,"video":false,"poster_path":"\/6ApDtO7xaWAfPqfi2IARXIzj8QS.jpg","id":359724,"adult":false,"backdrop_path":"\/n3UanIvmnBlH531pykuzNs4LbH6.jpg","original_language":"en","original_title":"Ford v Ferrari","genre_ids":[28,18,36],"title":"Ford v Ferrari","vote_average":8,"overview":"American car designer Carroll Shelby and the British-born driver Ken Miles work together to battle corporate interference, the laws of physics, and their own personal demons to build a revolutionary race car for Ford Motor Company and take on the dominating race cars of Enzo Ferrari at the 24 Hours of Le Mans in France in 1966.","release_date":"2019-11-13"},{"popularity":113.763,"vote_count":360,"video":false,"poster_path":"\/4Fc3UkAyXIKWW8jrCQpvOkTE1gy.jpg","id":398978,"adult":false,"backdrop_path":"\/928wR5R0vmbLsqxJaWmaMHS7SpO.jpg","original_language":"en","original_title":"The Irishman","genre_ids":[80,18,36],"title":"The Irishman","vote_average":8.3,"overview":"Pennsylvania, 1956. Frank Sheeran, a war veteran of Irish origin who works as a truck driver, accidentally meets mobster Russell Bufalino. Once Frank becomes his trusted man, Bufalino sends him to Chicago with the task of helping Jimmy Hoffa, a powerful union leader related to organized crime, with whom Frank will maintain a close friendship for nearly twenty years.","release_date":"2019-11-01"},{"popularity":63.228,"vote_count":576,"video":false,"poster_path":"\/kTQ3J8oTTKofAVLYnds2cHUz9KO.jpg","id":522938,"adult":false,"backdrop_path":"\/spYx9XQFODuqEVoPpvaJI1ksAVt.jpg","original_language":"en","original_title":"Rambo: Last Blood","genre_ids":[28,53],"title":"Rambo: Last Blood","vote_average":5.9,"overview":"When John Rambo's niece travels to Mexico to find the father that abandoned her and her mother, she finds herself in the grasps of Calle Mexican sex traffickers. When she doesn't return home as expected, John learns she's crossed into Mexico and sets out to get her back and make them pay.","release_date":"2019-09-19"},{"popularity":33.154,"vote_count":8,"video":false,"poster_path":"\/7EKGHMsm3nv87wvlqD7HBZYgAeP.jpg","id":640882,"adult":false,"backdrop_path":"\/ailBwpIwzUcNpuKSHtSwyqXAYCe.jpg","original_language":"en","original_title":"3022","genre_ids":[878],"title":"3022","vote_average":5.9,"overview":"A group of astronauts living in the haunting emptiness of deep space awakens to find earth has suffered an extinction-level event.","release_date":"2019-11-22"},{"popularity":52.752,"vote_count":282,"video":false,"poster_path":"\/q125RHUDgR4gjwh1QkfYuJLYkL.jpg","id":508965,"adult":false,"backdrop_path":"\/mlxKite1x1PgmIhJgAxNS9eHmH8.jpg","original_language":"en","original_title":"Klaus","genre_ids":[12,16,35,10751],"title":"Klaus","vote_average":8.4,"overview":"When Jesper distinguishes himself as the Postal Academy's worst student, he is sent to Smeerensburg, a small village located on a icy island above the Arctic Circle, where grumpy inhabitants barely exchange words, let alone letters. Jesper is about to give up and abandon his duty as a postman when he meets local teacher Alva and Klaus, a mysterious carpenter who lives alone in a cabin full of handmade toys.","release_date":"2019-11-08"},{"popularity":49.093,"vote_count":962,"video":false,"poster_path":"\/tBuabjEqxzoUBHfbyNbd8ulgy5j.jpg","id":420809,"adult":false,"backdrop_path":"\/skvI4rYFrKXS73BJxWGH54Omlvv.jpg","original_language":"en","original_title":"Maleficent: Mistress of Evil","genre_ids":[12,14,10751],"title":"Maleficent: Mistress of Evil","vote_average":7.2,"overview":"Maleficent and her goddaughter Aurora begin to question the complex family ties that bind them as they are pulled in different directions by impending nuptials, unexpected allies, and dark new forces at play.","release_date":"2019-10-16"},{"popularity":23.152,"vote_count":1,"video":false,"poster_path":"\/40Tje7U3S6LwNL2KRothPEmgw7H.jpg","id":637963,"adult":false,"backdrop_path":null,"original_language":"en","original_title":"Never Surrender: A Galaxy Quest Documentary","genre_ids":[99],"title":"Never Surrender: A Galaxy Quest Documentary","vote_average":5,"overview":"A feature-length documentary about the film Galaxy Quest and its legacy, celebrating its milestone 20th anniversary.","release_date":"2019-11-26"},{"popularity":44.417,"vote_count":279,"video":false,"poster_path":"\/g4z7mDmJmx23vsVg6XNWcnXb6gc.jpg","id":480105,"adult":false,"backdrop_path":"\/3uG3aOhEzFCjcQulsJQiAzLSrw8.jpg","original_language":"en","original_title":"47 Meters Down: Uncaged","genre_ids":[12,27,53],"title":"47 Meters Down: Uncaged","vote_average":4.7,"overview":"A group of backpackers diving in a ruined underwater city discover that they have stumbled into the territory of the ocean's deadliest shark species.","release_date":"2019-08-15"},{"popularity":36.198,"vote_count":21,"video":false,"poster_path":"\/8lSuziVF8TChwOczftjbxhpuu09.jpg","id":535292,"adult":false,"backdrop_path":"\/blUCzzkFNWrur18J0BvIYBdbquv.jpg","original_language":"en","original_title":"21 Bridges","genre_ids":[28,80,18,53],"title":"21 Bridges","vote_average":6.9,"overview":"A disgraced NYPD detective after being thrust into a citywide manhunt for a cop killer, is given a shot at redemption.","release_date":"2019-10-24"},{"popularity":33.681,"vote_count":511,"video":false,"poster_path":"\/p69QzIBbN06aTYqRRiCOY1emNBh.jpg","id":501170,"adult":false,"backdrop_path":"\/1nm0sk8UUx9jHCTHuMKe2jkt4Pn.jpg","original_language":"en","original_title":"Doctor Sleep","genre_ids":[27],"title":"Doctor Sleep","vote_average":7.1,"overview":"A traumatized, alcoholic Dan Torrance meets Abra, a kid who also has the ability to \"shine.\" He tries to protect her from the True Knot, a cult whose goal is to feed off of people like them in order to remain immortal.","release_date":"2019-10-30"}],"page":1,"total_results":1395,"dates":{"maximum":"2019-12-04","minimum":"2019-10-17"},"total_pages":70}