{"results":[{"popularity":460.047,"vote_count":544,"video":false,"poster_path":"\/qdfARIhgpgZOBh3vfNhWS4hmSo3.jpg","id":330457,"adult":false,"backdrop_path":"\/xJWPZIYOEFIjZpBL7SVBGnzRYXp.jpg","original_language":"en","original_title":"Frozen II","genre_ids":[16,10402,10751],"title":"Frozen II","vote_average":7.1,"overview":"Elsa, Anna, Kristoff and Olaf head far into the forest to learn the truth about an ancient mystery of their kingdom.","release_date":"2019-11-20"},{"popularity":166.281,"vote_count":544,"video":false,"poster_path":"\/zBhv8rsLOfpFW2M5b6wW78Uoojs.jpg","id":540901,"adult":false,"backdrop_path":"\/mBBJ3N3an8FLkp0ZpGgIJwHKhBP.jpg","original_language":"en","original_title":"Hustlers","genre_ids":[35,80,18],"title":"Hustlers","vote_average":6.2,"overview":"A crew of savvy former strip club employees band together to turn the tables on their Wall Street clients.","release_date":"2019-09-12"},{"popularity":122.978,"vote_count":165,"video":false,"poster_path":"\/pThyQovXQrw2m0s9x82twj48Jq4.jpg","id":546554,"adult":false,"backdrop_path":"\/AbRYlvwAKHs0YuyNO6NX9ofq4l6.jpg","original_language":"en","original_title":"Knives Out","genre_ids":[35,9648,53],"title":"Knives Out","vote_average":8,"overview":"When renowned crime novelist Harlan Thrombey is found dead at his estate just after his 85th birthday, the inquisitive and debonair Detective Benoit Blanc is mysteriously enlisted to investigate. From Harlan's dysfunctional family to his devoted staff, Blanc sifts through a web of red herrings and self-serving lies to uncover the truth behind Harlan's untimely death.","release_date":"2019-11-27"},{"popularity":115.722,"vote_count":723,"video":false,"poster_path":"\/fapXd3v9qTcNBTm39ZC4KUVQDNf.jpg","id":423204,"adult":false,"backdrop_path":"\/k2WyDw2NTUIWnuEs5gT7wgrCQg6.jpg","original_language":"en","original_title":"Angel Has Fallen","genre_ids":[28],"title":"Angel Has Fallen","vote_average":5.8,"overview":"After the events in the previous film, Secret Service agent Mike Banning finds himself framed for an assassination attempt on the President. Pursued by his own agency and the FBI, Banning races to clear his name and uncover the real terrorist threat which has set its sights on Air Force One.","release_date":"2019-08-21"},{"popularity":100.555,"vote_count":1545,"video":false,"poster_path":"\/7IiTTgloJzvGI1TAYymCfbfl3vT.jpg","id":496243,"adult":false,"backdrop_path":"\/TU9NIjwzjoKPwQHoHshkFcQUCG.jpg","original_language":"ko","original_title":"기생충","genre_ids":[35,18],"title":"Parasite","vote_average":8.5,"overview":"All unemployed, Ki-taek's family takes peculiar interest in the wealthy and glamorous Parks for their livelihood until they get entangled in an unexpected incident.","release_date":"2019-05-30"},{"popularity":85.015,"vote_count":51,"video":false,"poster_path":"\/MBiKqTsouYqAACLYNDadsjhhC0.jpg","id":486589,"adult":false,"backdrop_path":"\/bga3i5jcejBekr2FCGJga1fYCh.jpg","original_language":"en","original_title":"Red Shoes 2019","genre_ids":[16,10749],"title":"Red Shoes 2019","vote_average":5.9,"overview":"Princes who have been turned into Dwarfs seek the red shoes of a lady in order to break the spell, although it will not be easy.","release_date":"2019-07-25"},{"popularity":84.32,"vote_count":0,"video":false,"poster_path":"\/vn94LlNrbUWIZZyAdmvUepFBeaY.jpg","id":449924,"adult":false,"backdrop_path":"\/ekP6EVxL81lZ4ivcqPsoZ72rY0h.jpg","original_language":"cn","original_title":"葉問4","genre_ids":[28,18,36],"title":"Ip Man 4: The Finale","vote_average":0,"overview":"Ip Man 4 is an upcoming Hong Kong biographical martial arts film directed by Wilson Yip and produced by Raymond Wong. It is the fourth in the Ip Man film series based on the life of the Wing Chun grandmaster of the same name and features Donnie Yen reprising the role. The film began production in April 2018 and ended in July the same year.","release_date":"2019-12-20"},{"popularity":79.296,"vote_count":458,"video":false,"poster_path":"\/6ApDtO7xaWAfPqfi2IARXIzj8QS.jpg","id":359724,"adult":false,"backdrop_path":"\/mn9k8zapebAbCqsiKf24juhXjjx.jpg","original_language":"en","original_title":"Ford v Ferrari","genre_ids":[28,18,36],"title":"Ford v Ferrari","vote_average":8,"overview":"American car designer Carroll Shelby and the British-born driver Ken Miles work together to battle corporate interference, the laws of physics, and their own personal demons to build a revolutionary race car for Ford Motor Company and take on the dominating race cars of Enzo Ferrari at the 24 Hours of Le Mans in France in 1966.","release_date":"2019-11-13"},{"popularity":65.666,"vote_count":0,"video":false,"poster_path":"\/db32LaOibwEliAmSL2jjDF6oDdj.jpg","id":181812,"adult":false,"backdrop_path":"\/jOzrELAzFxtMx2I4uDGHOotdfsS.jpg","original_language":"en","original_title":"Star Wars: The Rise of Skywalker","genre_ids":[28,12,878],"title":"Star Wars: The Rise of Skywalker","vote_average":0,"overview":"The next installment in the franchise and the conclusion of the “Star Wars“ sequel trilogy as well as the “Skywalker Saga.“","release_date":"2019-12-18"},{"popularity":60.179,"vote_count":8,"video":false,"poster_path":"\/9Vp8MKqrwRAtvACF7PBwbvdG4dq.jpg","id":512200,"adult":false,"backdrop_path":"\/zTxHf9iIOCqRbxvl8W5QYKrsMLq.jpg","original_language":"en","original_title":"Jumanji: The Next Level","genre_ids":[28,12,35,14],"title":"Jumanji: The Next Level","vote_average":8.2,"overview":"Spencer returns to the world of Jumanji, prompting his friends, his grandfather and his grandfather’s friend to enter a different and more dangerous version to save him.","release_date":"2019-12-04"},{"popularity":56.297,"vote_count":987,"video":false,"poster_path":"\/tBuabjEqxzoUBHfbyNbd8ulgy5j.jpg","id":420809,"adult":false,"backdrop_path":"\/skvI4rYFrKXS73BJxWGH54Omlvv.jpg","original_language":"en","original_title":"Maleficent: Mistress of Evil","genre_ids":[12,14,10751],"title":"Maleficent: Mistress of Evil","vote_average":7.2,"overview":"Maleficent and her goddaughter Aurora begin to question the complex family ties that bind them as they are pulled in different directions by impending nuptials, unexpected allies, and dark new forces at play.","release_date":"2019-10-16"},{"popularity":55.542,"vote_count":152,"video":false,"poster_path":"\/r5WnfZPYAVhBA9FuZGn6THWaGHD.jpg","id":458897,"adult":false,"backdrop_path":"\/a0xTB1vBxMGt6LGG4N7k1wO9lfL.jpg","original_language":"en","original_title":"Charlie's Angels","genre_ids":[28,12,35],"title":"Charlie's Angels","vote_average":6.5,"overview":"When a systems engineer blows the whistle on a dangerous technology, Charlie's Angels from across the globe are called into action, putting their lives on the line to protect society.","release_date":"2019-11-14"},{"popularity":48.895,"vote_count":90,"video":false,"poster_path":"\/mDeES2L2lhW8rJSyAKZMuKqZM7e.jpg","id":549053,"adult":false,"backdrop_path":"\/eZ9wYTk9Gy2zYEv8rhRG3IoPuXG.jpg","original_language":"en","original_title":"Last Christmas","genre_ids":[35,18,10749],"title":"Last Christmas","vote_average":7,"overview":"Kate is a young woman subscribed to bad decisions. Her last date with disaster? That of having accepted to work as Santa's elf for a department store. However, she meets Tom there. Her life takes a new turn. For Kate, it seems too good to be true.","release_date":"2019-11-07"},{"popularity":41.397,"vote_count":29,"video":false,"poster_path":"\/8lSuziVF8TChwOczftjbxhpuu09.jpg","id":535292,"adult":false,"backdrop_path":"\/blUCzzkFNWrur18J0BvIYBdbquv.jpg","original_language":"en","original_title":"21 Bridges","genre_ids":[28,80,18,53],"title":"21 Bridges","vote_average":6.3,"overview":"A disgraced NYPD detective after being thrust into a citywide manhunt for a cop killer, is given a shot at redemption.","release_date":"2019-10-24"},{"popularity":38.683,"vote_count":223,"video":false,"poster_path":"\/uaXNjRkDdjfxfVuKHo25wkA6CiA.jpg","id":481084,"adult":false,"backdrop_path":"\/ur4NTeFGZmQ6Hz5uEkAMgPI3WRg.jpg","original_language":"en","original_title":"The Addams Family","genre_ids":[16,35,14,10751],"title":"The Addams Family","vote_average":6.1,"overview":"The Addams family's lives begin to unravel when they face-off against a treacherous, greedy crafty reality-TV host while also preparing for their extended family to arrive for a major celebration.","release_date":"2019-10-10"},{"popularity":34.175,"vote_count":25,"video":false,"poster_path":"\/casC9Go5og9fezINXkr2UgGVvV1.jpg","id":487616,"adult":false,"backdrop_path":"\/r3LHZUzgQg0SvaaaDcubsIgTtK9.jpg","original_language":"fr","original_title":"Curiosa","genre_ids":[18,36],"title":"Curiosa","vote_average":6,"overview":"A passionate love story set against a backdrop of sexual freedom, loosely based on the relationship between 19th century authors Pierre Louÿs and Marie de Régnier","release_date":"2019-04-03"},{"popularity":22.199,"vote_count":4343,"video":false,"poster_path":"\/jcvJ2xcVWU9Wh0hZAxcs103s8nN.jpg","id":28,"adult":false,"backdrop_path":"\/fTuOyNf8GO6R9EthS7v9ZqokNMN.jpg","original_language":"en","original_title":"Apocalypse Now","genre_ids":[18,10752],"title":"Apocalypse Now","vote_average":8.2,"overview":"At the height of the Vietnam war, Captain Benjamin Willard is sent on a dangerous mission that, officially, \"does not exist, nor will it ever exist.\" His goal is to locate - and eliminate - a mysterious Green Beret Colonel named Walter Kurtz, who has been leading his personal army on illegal guerrilla missions into enemy territory.","release_date":"1979-08-15"},{"popularity":27.7,"vote_count":0,"video":false,"poster_path":null,"id":582313,"adult":false,"backdrop_path":null,"original_language":"en","original_title":"Ex Gratia","genre_ids":[35],"title":"Ex Gratia","vote_average":0,"overview":"When you’re in a relationship, you often share clothing items like sweatshirts, or t-shirts. When you break up, you want it back, but the interaction is just too awkward. Curtis, a nerd with a secret agenda, breaks into people’s homes to retrieve them for those that have been dumped. One night, he breaks into a home and meets Sam, a curious frat boy who wants to get to the bottom of the burglar’s identity. An unexpected friendship is born when identities are revealed, and Curtis gets a new teammate.","release_date":"2019-12-02"},{"popularity":27.695,"vote_count":0,"video":false,"poster_path":"\/hyEvSsDbGCvKqgIL1wEVRm6efTp.jpg","id":628826,"adult":false,"backdrop_path":"\/jX4KahPOrQosfUXeLqp9IPcMa6v.jpg","original_language":"en","original_title":"This Train I Ride","genre_ids":[99],"title":"This Train I Ride","vote_average":0,"overview":"The United States. Today. A freight train crosses the landscape like a giant steel snake. To catch this train, you have to wait for nightfall so you’re not seen. Because it’s illegal. I’m doing it to follow some hobos* (*vagabonds). They’re women, on their own, and they’ve chosen a life of travel, with no particular destination in mind. Amid the noise of the iron horse, they adopt me as a traveling companion and tell their stories to my camera. I try to grasp what their ultimate quest is. They’re stronger than men, stronger than society. They are free.","release_date":"2019-12-02"},{"popularity":25.768,"vote_count":172,"video":false,"poster_path":"\/uPGq1mkEXznUpapDmOSxbsybjfp.jpg","id":475303,"adult":false,"backdrop_path":"\/zHuAx63Rlfz82bCexEHsX17ldcm.jpg","original_language":"en","original_title":"A Rainy Day in New York","genre_ids":[35,10749],"title":"A Rainy Day in New York","vote_average":7,"overview":"Two young people arrive in New York to spend a weekend; once they arrive they are met with bad weather and a series of adventures.","release_date":"2019-07-26"}],"page":1,"total_results":406,"dates":{"maximum":"2019-12-27","minimum":"2019-12-02"},"total_pages":21}